2019-02-05T13:50:18+00:00 INFO Queuing 3.5.2 - wc_update_352_drop_download_log_fk
2019-02-05T13:50:18+00:00 INFO Queuing 3.5.4 - wc_update_354_modify_shop_manager_caps
2019-02-05T13:50:18+00:00 INFO Queuing 3.5.4 - wc_update_354_db_version
2019-02-05T13:50:20+00:00 INFO Running wc_update_352_drop_download_log_fk callback
2019-02-05T13:50:20+00:00 INFO Finished running wc_update_352_drop_download_log_fk callback
2019-02-05T13:50:20+00:00 INFO Running wc_update_354_modify_shop_manager_caps callback
2019-02-05T13:50:20+00:00 INFO Finished running wc_update_354_modify_shop_manager_caps callback
2019-02-05T13:50:20+00:00 INFO Running wc_update_354_db_version callback
2019-02-05T13:50:20+00:00 INFO Finished running wc_update_354_db_version callback
2019-02-05T13:50:20+00:00 INFO Data update complete
